…
*Hint:* This is one of those times when you should think about the
cleanliness of your analysis. I added a single code chunk for you below,
but do you want to use more than one? Would you like to write more
comments outside of the code chunk?

<!-------------------------- Start your work below ---------------------------->

``` r
### EXPLORE HERE ###
building_permits
```

    ## # A tibble: 20,680 × 14
    ##    permit_n…¹ issue_date proje…² type_…³ address proje…⁴ build…⁵ build…⁶ appli…⁷
    ##    <chr>      <date>       <dbl> <chr>   <chr>   <chr>   <chr>   <chr>   <chr>  
    ##  1 BP-2016-0… 2017-02-01  0      Salvag… 4378 W… <NA>    <NA>     <NA>   Raffae…
    ##  2 BU468090   2017-02-01  0      New Bu… 1111 R… <NA>    <NA>     <NA>   MAX KE…
    ##  3 DB-2016-0… 2017-02-01  3.5 e4 Additi… 3732 W… <NA>    <NA>     <NA>   Peter …
    ##  4 DB-2017-0… 2017-02-01  1.5 e4 Additi… 88 W P… <NA>    Mercur… "88 W … Aaron …
    ##  5 DB452250   2017-02-01  1.81e5 New Bu… 492 E … <NA>    082016… "3559 … John H…
    ##  6 BP-2016-0… 2017-02-02  0      Salvag… 3332 W… <NA>    <NA>     <NA>   Shalin…
    ##  7 BP-2016-0… 2017-02-02  1.5 e4 Demoli… 2873 W… <NA>    <NA>     <NA>   Mike C…
    ##  8 BP-2016-0… 2017-02-02  0      Salvag… 3579 E… <NA>    <NA>     <NA>   Ricci …
    ##  9 BP-2016-0… 2017-02-02  6.5 e7 New Bu… 620 CA… <NA>    <NA>     <NA>   David …
    ## 10 BP-2016-0… 2017-02-02  2.5 e4 Additi… 1868 W… <NA>    RenBui… "1868 … Daniel…
    ## # … with 20,670 more rows, 5 more variables: applicant_address <chr>,
    ## #   property_use <chr>, specific_use_category <chr>, year <dbl>, bi_id <dbl>,
    ## #   and abbreviated variable names ¹​permit_number, ²​project_value,
    ## #   ³​type_of_work, ⁴​project_description, ⁵​building_contractor,
    ## #   ⁶​building_contractor_address, ⁷​applicant
…
``` r
library(dplyr)
flow_sample %>% filter(station_id == "05BB001")
```

    ## # A tibble: 218 × 7
    ##    station_id  year extreme_type month   day  flow sym  
    ##    <chr>      <dbl> <chr>        <dbl> <dbl> <dbl> <chr>
    ##  1 05BB001     1909 maximum          7     7   314 <NA> 
    ##  2 05BB001     1910 maximum          6    12   230 <NA> 
    ##  3 05BB001     1911 maximum          6    14   264 <NA> 
    ##  4 05BB001     1912 maximum          8    25   174 <NA> 
    ##  5 05BB001     1913 maximum          6    11   232 <NA> 
    ##  6 05BB001     1914 maximum          6    18   214 <NA> 
    ##  7 05BB001     1915 maximum          6    27   236 <NA> 
    ##  8 05BB001     1916 maximum          6    20   309 <NA> 
    ##  9 05BB001     1917 maximum          6    17   174 <NA> 
    ## 10 05BB001     1918 maximum          6    15   345 <NA> 
    ## # … with 208 more rows
…
``` r
june_flow <- filter(flow_sample, month == 6)
june_flow_over_year <- june_flow %>% select(year, flow)
june_flow_over_year
```

    ## # A tibble: 79 × 2
    ##     year  flow
    ##    <dbl> <dbl>
    ##  1  1910   230
    ##  2  1911   264
    ##  3  1913   232
    ##  4  1914   214
    ##  5  1915   236
    ##  6  1916   309
    ##  7  1917   174
    ##  8  1918   345
    ##  9  1919   185
    ## 10  1921   171
    ## # … with 69 more rows
…
Make sure it’s clear what research question you are doing each operation
for!

<!------------------------- Start your work below ----------------------------->

question1 uses summarizing3 and graphing7 question2 uses summarizing1
and graphing5 question3 uses summarizing2 and graphing6 question4 uses
summarising4 and graphing5

``` r
research1.1 <- flow_sample %>% mutate(montha = month.abb[as.numeric(month)])
print(research1.1)
```

    ## # A tibble: 218 × 8
    ##    station_id  year extreme_type month   day  flow sym   montha
    ##    <chr>      <dbl> <chr>        <dbl> <dbl> <dbl> <chr> <chr> 
    ##  1 05BB001     1909 maximum          7     7   314 <NA>  Jul   
    ##  2 05BB001     1910 maximum          6    12   230 <NA>  Jun   
    ##  3 05BB001     1911 maximum          6    14   264 <NA>  Jun   
    ##  4 05BB001     1912 maximum          8    25   174 <NA>  Aug   
    ##  5 05BB001     1913 maximum          6    11   232 <NA>  Jun   
    ##  6 05BB001     1914 maximum          6    18   214 <NA>  Jun   
    ##  7 05BB001     1915 maximum          6    27   236 <NA>  Jun   
    ##  8 05BB001     1916 maximum          6    20   309 <NA>  Jun   
    ##  9 05BB001     1917 maximum          6    17   174 <NA>  Jun   
    ## 10 05BB001     1918 maximum          6    15   345 <NA>  Jun   
    ## # … with 208 more rows
…
